EESchema Schematic File Version 4
EELAYER 30 0
EELAYER END
$Descr A4 11693 8268
encoding utf-8
Sheet 1 1
Title ""
Date ""
Rev ""
Comp ""
Comment1 ""
Comment2 ""
Comment3 ""
Comment4 ""
$EndDescr
$Comp
L meansOfCircuitDesign:TPS62135 U1
U 1 1 5EF9C3CE
P 4950 3500
F 0 "U1" H 4950 4096 63  0000 C CNN
F 1 "TPS62135" H 4950 3985 63  0000 C CNN
F 2 "Automated:RGX_TI_VQFN-HR11" H 4850 3500 63  0001 C CNN
F 3 "http://www.ti.com/lit/ds/symlink/tps62135.pdf" H 4850 3500 63  0001 C CNN
	1    4950 3500
	1    0    0    -1  
$EndComp
$Comp
L Device:L L1
U 1 1 5EF9D116
P 5600 3200
F 0 "L1" V 5790 3200 50  0000 C CNN
F 1 "SRP0420-1R0K " V 5700 3200 50  0000 C CNN
F 2 "Automated:L_Bourns_SRP0420" H 5600 3200 50  0001 C CNN
F 3 "~" H 5600 3200 50  0001 C CNN
	1    5600 3200
	0    -1   -1   0   
$EndComp
Wire Wire Line
	5450 3200 5400 3200
$Comp
L Device:C_Small C3
U 1 1 5EF9EB1D
P 6900 4300
F 0 "C3" H 6700 4300 50  0000 L CNN
F 1 "TMK212BBJ106MG-T" H 6600 3900 50  0000 L CNN
F 2 "Capacitor_SMD:C_0805_2012Metric" H 6900 4300 50  0001 C CNN
F 3 "~" H 6900 4300 50  0001 C CNN
	1    6900 4300
	1    0    0    -1  
$EndComp
$Comp
L power:GND #PWR014
U 1 1 5EFA0CA8
P 6900 4400
F 0 "#PWR014" H 6900 4150 50  0001 C CNN
F 1 "GND" H 6900 4250 50  0000 C CNN
F 2 "" H 6900 4400 50  0001 C CNN
F 3 "" H 6900 4400 50  0001 C CNN
	1    6900 4400
	1    0    0    -1  
$EndComp
$Comp
L power:GND #PWR015
U 1 1 5EFA1023
P 7050 4400
F 0 "#PWR015" H 7050 4150 50  0001 C CNN
F 1 "GND" H 7050 4250 50  0000 C CNN
F 2 "" H 7050 4400 50  0001 C CNN
F 3 "" H 7050 4400 50  0001 C CNN
	1    7050 4400
	1    0    0    -1  
$EndComp
$Comp
L power:GND #PWR010
U 1 1 5EFA488A
P 5400 3800
F 0 "#PWR010" H 5400 3550 50  0001 C CNN
F 1 "GND" V 5405 3672 50  0000 R CNN
F 2 "" H 5400 3800 50  0001 C CNN
F 3 "" H 5400 3800 50  0001 C CNN
	1    5400 3800
	0    -1   -1   0   
$EndComp
$Comp
L power:GND #PWR013
U 1 1 5EFAE2F8
P 6700 3500
F 0 "#PWR013" H 6700 3250 50  0001 C CNN
F 1 "GND" H 6750 3350 50  0000 C CNN
F 2 "" H 6700 3500 50  0001 C CNN
F 3 "" H 6700 3500 50  0001 C CNN
	1    6700 3500
	0    1    1    0   
$EndComp
$Comp
L power:GND #PWR012
U 1 1 5EFAE7A5
P 6700 3400
F 0 "#PWR012" H 6700 3150 50  0001 C CNN
F 1 "GND" H 6700 3250 50  0000 C CNN
F 2 "" H 6700 3400 50  0001 C CNN
F 3 "" H 6700 3400 50  0001 C CNN
	1    6700 3400
	0    1    1    0   
$EndComp
Text Label 4500 3200 2    50   ~ 0
In
$Comp
L Device:R_Small R3
U 1 1 5EFB2AC2
P 7150 3100
F 0 "R3" H 7209 3146 50  0000 L CNN
F 1 "R1" H 7209 3055 50  0000 L CNN
F 2 "Resistor_SMD:R_0603_1608Metric" H 7150 3100 50  0001 C CNN
F 3 "~" H 7150 3100 50  0001 C CNN
	1    7150 3100
	1    0    0    -1  
$EndComp
$Comp
L Device:R_Small R4
U 1 1 5EFB5F60
P 7150 3750
F 0 "R4" H 7209 3796 50  0000 L CNN
F 1 "R2" H 7209 3705 50  0000 L CNN
F 2 "Resistor_SMD:R_0603_1608Metric" H 7150 3750 50  0001 C CNN
F 3 "~" H 7150 3750 50  0001 C CNN
	1    7150 3750
	1    0    0    -1  
$EndComp
$Comp
L power:GND #PWR016
U 1 1 5EFBEF97
P 7150 3850
F 0 "#PWR016" H 7150 3600 50  0001 C CNN
F 1 "GND" H 7155 3677 50  0000 C CNN
F 2 "" H 7150 3850 50  0001 C CNN
F 3 "" H 7150 3850 50  0001 C CNN
	1    7150 3850
	1    0    0    -1  
$EndComp
Wire Wire Line
	7150 3650 7150 3200
Wire Wire Line
	7150 3650 7050 3650
Connection ~ 7150 3650
$Comp
L Connector_Generic:Conn_01x02 J3
U 1 1 5EFC154C
P 4200 3900
F 0 "J3" H 4300 3800 50  0000 C CNN
F 1 "Conn_01x02" H 4350 4050 50  0000 C CNN
F 2 "Connector_PinHeader_2.54mm:PinHeader_1x02_P2.54mm_Vertical" H 4200 3900 50  0001 C CNN
F 3 "~" H 4200 3900 50  0001 C CNN
	1    4200 3900
	-1   0    0    1   
$EndComp
Wire Wire Line
	4400 3800 4500 3800
$Comp
L power:GND #PWR07
U 1 1 5EFC2454
P 4400 3900
F 0 "#PWR07" H 4400 3650 50  0001 C CNN
F 1 "GND" H 4405 3727 50  0000 C CNN
F 2 "" H 4400 3900 50  0001 C CNN
F 3 "" H 4400 3900 50  0001 C CNN
	1    4400 3900
	1    0    0    -1  
$EndComp
$Comp
L Device:C_Small C4
U 1 1 5EFC3004
P 7050 4300
F 0 "C4" H 7150 4300 50  0000 L CNN
F 1 "TMK212BBJ106MG-T" H 6750 3900 50  0001 L CNN
F 2 "Capacitor_SMD:C_0805_2012Metric" H 7050 4300 50  0001 C CNN
F 3 "~" H 7050 4300 50  0001 C CNN
	1    7050 4300
	1    0    0    -1  
$EndComp
$Comp
L Device:C_Small C2
U 1 1 5EFC5BEF
P 4600 4100
F 0 "C2" H 4692 4146 50  0000 L CNN
F 1 "C_SS" H 4692 4055 50  0000 L CNN
F 2 "Capacitor_SMD:C_0603_1608Metric" H 4600 4100 50  0001 C CNN
F 3 "~" H 4600 4100 50  0001 C CNN
	1    4600 4100
	1    0    0    -1  
$EndComp
$Comp
L Device:R_Small R1
U 1 1 5EFC8BCE
P 4950 4100
F 0 "R1" H 5009 4146 50  0000 L CNN
F 1 "R_SS" H 5009 4055 50  0000 L CNN
F 2 "Resistor_SMD:R_0603_1608Metric" H 4950 4100 50  0001 C CNN
F 3 "~" H 4950 4100 50  0001 C CNN
	1    4950 4100
	1    0    0    -1  
$EndComp
$Comp
L power:GND #PWR08
U 1 1 5EFCBD73
P 4600 4200
F 0 "#PWR08" H 4600 3950 50  0001 C CNN
F 1 "GND" H 4605 4027 50  0000 C CNN
F 2 "" H 4600 4200 50  0001 C CNN
F 3 "" H 4600 4200 50  0001 C CNN
	1    4600 4200
	1    0    0    -1  
$EndComp
$Comp
L power:GND #PWR09
U 1 1 5EFCC1AD
P 4950 4200
F 0 "#PWR09" H 4950 3950 50  0001 C CNN
F 1 "GND" H 4955 4027 50  0000 C CNN
F 2 "" H 4950 4200 50  0001 C CNN
F 3 "" H 4950 4200 50  0001 C CNN
	1    4950 4200
	1    0    0    -1  
$EndComp
Wire Wire Line
	4950 4000 4600 4000
Wire Wire Line
	4500 4000 4500 3800
Connection ~ 4600 4000
Wire Wire Line
	4600 4000 4500 4000
Connection ~ 4500 3800
$Comp
L Jumper:SolderJumper_3_Open JP2
U 1 1 5EFCE94D
P 3650 3700
F 0 "JP2" V 3696 3767 50  0000 L CNN
F 1 "SolderJumper_3_Open" V 3605 3767 50  0000 L CNN
F 2 "Jumper:SolderJumper-3_P1.3mm_Open_RoundedPad1.0x1.5mm_NumberLabels" H 3650 3700 50  0001 C CNN
F 3 "~" H 3650 3700 50  0001 C CNN
	1    3650 3700
	0    -1   -1   0   
$EndComp
$Comp
L power:GND #PWR03
U 1 1 5EFD4E4C
P 3650 3900
F 0 "#PWR03" H 3650 3650 50  0001 C CNN
F 1 "GND" H 3655 3727 50  0000 C CNN
F 2 "" H 3650 3900 50  0001 C CNN
F 3 "" H 3650 3900 50  0001 C CNN
	1    3650 3900
	1    0    0    -1  
$EndComp
Text Label 3650 3500 2    50   ~ 0
In
$Comp
L Device:R_Small R2
U 1 1 5EFD845C
P 7050 3750
F 0 "R2" H 6991 3704 50  0000 R CNN
F 1 "R3" H 6991 3795 50  0000 R CNN
F 2 "Resistor_SMD:R_0603_1608Metric" H 7050 3750 50  0001 C CNN
F 3 "~" H 7050 3750 50  0001 C CNN
	1    7050 3750
	1    0    0    1   
$EndComp
Connection ~ 7050 3650
Wire Wire Line
	7050 3850 5700 3850
Wire Wire Line
	5700 3850 5700 3700
Wire Wire Line
	5700 3700 5400 3700
$Comp
L Connector_Generic:Conn_01x02 J4
U 1 1 5EFDCEF1
P 3800 5300
F 0 "J4" H 3900 5200 50  0000 C CNN
F 1 "Conn_01x02" H 4100 5300 50  0000 C CNN
F 2 "Connector_PinHeader_2.54mm:PinHeader_1x02_P2.54mm_Vertical" H 3800 5300 50  0001 C CNN
F 3 "~" H 3800 5300 50  0001 C CNN
	1    3800 5300
	-1   0    0    1   
$EndComp
$Comp
L Device:LED_ALT D1
U 1 1 5EFDF05A
P 6250 4300
F 0 "D1" V 6289 4182 50  0000 R CNN
F 1 "LED_ALT" V 6198 4182 50  0000 R CNN
F 2 "LED_SMD:LED_0603_1608Metric" H 6250 4300 50  0001 C CNN
F 3 "~" H 6250 4300 50  0001 C CNN
	1    6250 4300
	0    -1   -1   0   
$EndComp
Wire Wire Line
	6250 4150 6150 4150
$Comp
L power:GND #PWR011
U 1 1 5EFE57B9
P 6250 4450
F 0 "#PWR011" H 6250 4200 50  0001 C CNN
F 1 "GND" H 6255 4277 50  0000 C CNN
F 2 "" H 6250 4450 50  0001 C CNN
F 3 "" H 6250 4450 50  0001 C CNN
	1    6250 4450
	1    0    0    -1  
$EndComp
Wire Wire Line
	6250 4450 6150 4450
Wire Wire Line
	6150 4450 6150 4250
Connection ~ 6250 4450
Connection ~ 6250 4150
Text Label 5400 3300 0    50   ~ 0
Out
Text Label 7050 4200 1    50   ~ 0
Out
Text Label 6900 4200 1    50   ~ 0
Out
$Comp
L power:GND #PWR06
U 1 1 5F0140D8
P 4150 4750
F 0 "#PWR06" H 4150 4500 50  0001 C CNN
F 1 "GND" H 4155 4577 50  0000 C CNN
F 2 "" H 4150 4750 50  0001 C CNN
F 3 "" H 4150 4750 50  0001 C CNN
	1    4150 4750
	1    0    0    -1  
$EndComp
$Comp
L Device:C_Small C1
U 1 1 5F0161AF
P 4150 3300
F 0 "C1" H 4250 3300 50  0000 L CNN
F 1 "TMK212BBJ106MG-T" H 3850 2900 50  0001 L CNN
F 2 "Capacitor_SMD:C_0805_2012Metric" H 4150 3300 50  0001 C CNN
F 3 "~" H 4150 3300 50  0001 C CNN
	1    4150 3300
	-1   0    0    1   
$EndComp
$Comp
L power:GND #PWR05
U 1 1 5F017C48
P 4150 3400
F 0 "#PWR05" H 4150 3150 50  0001 C CNN
F 1 "GND" H 4155 3227 50  0000 C CNN
F 2 "" H 4150 3400 50  0001 C CNN
F 3 "" H 4150 3400 50  0001 C CNN
	1    4150 3400
	1    0    0    -1  
$EndComp
Wire Wire Line
	4150 3200 4500 3200
Text Label 4500 3600 2    50   ~ 0
VSEL
Text Label 4300 4550 0    50   ~ 0
VSEL
$Comp
L Jumper:SolderJumper_3_Open JP3
U 1 1 5F0215B3
P 4150 4550
F 0 "JP3" V 4050 4350 50  0000 L CNN
F 1 "SolderJumper_3_Open" V 3850 3650 50  0000 L CNN
F 2 "Jumper:SolderJumper-3_P1.3mm_Open_RoundedPad1.0x1.5mm_NumberLabels" H 4150 4550 50  0001 C CNN
F 3 "~" H 4150 4550 50  0001 C CNN
	1    4150 4550
	0    -1   -1   0   
$EndComp
Text Label 4150 4350 0    50   ~ 0
In
Text Label 4000 5300 0    50   ~ 0
VSEL
$Comp
L power:GND #PWR02
U 1 1 5F035091
P 2750 4750
F 0 "#PWR02" H 2750 4500 50  0001 C CNN
F 1 "GND" H 2755 4577 50  0000 C CNN
F 2 "" H 2750 4750 50  0001 C CNN
F 3 "" H 2750 4750 50  0001 C CNN
	1    2750 4750
	1    0    0    -1  
$EndComp
Text Label 2900 4550 0    50   ~ 0
EN
$Comp
L Jumper:SolderJumper_3_Open JP1
U 1 1 5F035098
P 2750 4550
F 0 "JP1" V 2650 4350 50  0000 L CNN
F 1 "SolderJumper_3_Open" V 2450 3650 50  0000 L CNN
F 2 "Jumper:SolderJumper-3_P1.3mm_Open_RoundedPad1.0x1.5mm_NumberLabels" H 2750 4550 50  0001 C CNN
F 3 "~" H 2750 4550 50  0001 C CNN
	1    2750 4550
	0    -1   -1   0   
$EndComp
Text Label 2750 4350 0    50   ~ 0
In
Text Label 4500 3300 2    50   ~ 0
EN
Text Label 5750 3200 0    50   ~ 0
Out
Text Label 5400 3200 0    50   ~ 0
SW
Wire Wire Line
	5400 3600 6000 3600
Wire Wire Line
	6250 3600 6250 4150
Wire Wire Line
	6400 3450 6400 3650
Wire Wire Line
	5400 3450 6400 3450
Wire Wire Line
	6400 3650 7050 3650
Text Label 6150 3450 0    50   ~ 0
FB_DIV
Text Label 4500 3700 2    50   ~ 0
MODE
Text Label 3800 3700 0    50   ~ 0
MODE
Text Label 6250 3600 0    50   ~ 0
PG
Text Label 4950 4000 0    50   ~ 0
SS
$Comp
L Connector_Generic:Conn_01x05 J5
U 1 1 5EFAB56E
P 6900 3300
F 0 "J5" H 7000 3250 50  0000 C CNN
F 1 "Conn_01x05" H 7200 3350 50  0000 C CNN
F 2 "Connector_PinHeader_2.54mm:PinHeader_1x05_P2.54mm_Vertical" H 6900 3300 50  0001 C CNN
F 3 "~" H 6900 3300 50  0001 C CNN
	1    6900 3300
	1    0    0    1   
$EndComp
$Comp
L Jumper:SolderJumper_2_Open JP4
U 1 1 5EFA5078
P 6550 3000
F 0 "JP4" H 6550 3205 50  0000 C CNN
F 1 "FB_SEL" H 6550 3114 50  0000 C CNN
F 2 "Jumper:SolderJumper-2_P1.3mm_Open_RoundedPad1.0x1.5mm" H 6550 3000 50  0001 C CNN
F 3 "~" H 6550 3000 50  0001 C CNN
	1    6550 3000
	1    0    0    -1  
$EndComp
Text Label 6400 3000 2    50   ~ 0
Out
Text Label 6700 3000 0    50   ~ 0
FB
Wire Wire Line
	7150 3000 6700 3000
Connection ~ 6700 3000
Wire Wire Line
	6700 3100 6700 3000
Text Label 6700 3300 2    50   ~ 0
Out
Text Label 6700 3200 2    50   ~ 0
Out
$Comp
L Connector_Generic:Conn_01x05 J1
U 1 1 5F0A0C30
P 2800 3300
F 0 "J1" H 2900 3250 50  0000 C CNN
F 1 "Conn_01x05" H 3100 3350 50  0000 C CNN
F 2 "Connector_PinHeader_2.54mm:PinHeader_1x05_P2.54mm_Vertical" H 2800 3300 50  0001 C CNN
F 3 "~" H 2800 3300 50  0001 C CNN
	1    2800 3300
	-1   0    0    1   
$EndComp
$Comp
L power:GND #PWR0101
U 1 1 5F0A1AC0
P 3000 3500
F 0 "#PWR0101" H 3000 3250 50  0001 C CNN
F 1 "GND" V 3005 3372 50  0000 R CNN
F 2 "" H 3000 3500 50  0001 C CNN
F 3 "" H 3000 3500 50  0001 C CNN
	1    3000 3500
	0    -1   -1   0   
$EndComp
$Comp
L power:GND #PWR0102
U 1 1 5F0A20C6
P 3000 3400
F 0 "#PWR0102" H 3000 3150 50  0001 C CNN
F 1 "GND" V 3005 3272 50  0000 R CNN
F 2 "" H 3000 3400 50  0001 C CNN
F 3 "" H 3000 3400 50  0001 C CNN
	1    3000 3400
	0    -1   -1   0   
$EndComp
Text Label 3000 3300 0    50   ~ 0
In
Text Label 3000 3200 0    50   ~ 0
In
Text Label 3000 3100 0    50   ~ 0
EN
$Comp
L Device:R_Small R5
U 1 1 5F0ADB5D
P 6000 3500
F 0 "R5" H 5941 3454 50  0000 R CNN
F 1 "10k" H 5941 3545 50  0000 R CNN
F 2 "Resistor_SMD:R_0603_1608Metric" H 6000 3500 50  0001 C CNN
F 3 "~" H 6000 3500 50  0001 C CNN
	1    6000 3500
	1    0    0    1   
$EndComp
Connection ~ 6000 3600
Wire Wire Line
	6000 3600 6250 3600
Text Label 6000 3400 0    50   ~ 0
Out
Text Label 4000 5200 0    50   ~ 0
PG
$EndSCHEMATC
